No.,Section,Question text,Answer Option 1,Answer Option 2,Answer Option 3,Answer Option 4,Explanation of Answer,Reward Type,Amount
1,1.1 Accounting and Book-keeping,Book-keeping refers to the subjective interpretation of accounting entries and data in the context of a business.,TRUE,"FALSE
1",,,"Book-keeping is defined as the direct record of all purchases and sales, while accounting is defined as the subjective interpretation of the data for the business.",,1
2,1.1 Accounting and Book-keeping,Accounting refers to the subjective interpretation of accounting entries and data in the context of a business.,"TRUE
1",FALSE,,,"Book-keeping is defined as the direct record of all purchases and sales, while accounting is defined as the subjective interpretation of the data for the business.",,1
3,1.2 Roles of Accounting,What is the role of stewardship in the context of accounting?,,,,,,,1
4,1.2 Roles of Accounting,How can accounting information help internal stakeholders in their decision-making process?,It helps them earn more revenue as customers will be impressed with their knowledge. ,"It helps them analyse, monitor and control the performance of their business.
1","It only benefits external stakeholders, and is done because it is required by regulation.",,"Accounting information helps both internal and external stakeholders, and the information can be used by them to analyse, monitor and control the performance of their business.",,2
5,1.2 Roles of Accounting,How can accounting information help external stakeholders in their decision-making process?,External stakeholders can use the information to blackmail the business into favorable deals and prices.,"It helps them analyse and evaluate the performance of the business.
1","It only benefits internal stakeholders, and companies release the information to the public for publicity and marketing reasons.",,"Accounting information helps both internal and external stakeholders, and the information can be used by them to analyse, monitor and control the performance of their business.",,2
6,1.3 Stakeholders,What are some of the typical users of accounting information?,"Owners, Suppliers, Bankers only","Customers, Employees, Government, only","Potential Investors, Competitors, General public only","All of the above
1","Many different parties use accounting information to analyse, monitor and control the performance of businesses for their own needs and purposes.",,2
7,1.3 Stakeholders,What are some of the types of accounting information that a stakeholder would use?,Profit for the period only,Total cash owned by the company only,Total debt owned by the company only,"All of the above
1","Stakeholders will use a wide range of accounting information, inclulding profit, cash owned, debt owned by the company to analyse the performance of the company according to different metrics.",,2
8,1.4 Professional Ethics,Integrity is defined as being straightfoward and honest in all professional and business relationships.,"TRUE
1",FALSE,,,Integritity is defined as being straightfoward and honest in all professional and business relationships.,,1
9,1.4 Professional Ethics,"Objectivity is not letting bias, conflict of interest or undue influence of others to override professional judgement.","TRUE
1",FALSE,,,"Objectivity is not letting bias, conflict of interest or undue influence of others to override professional judgement.",,1
10,1.5 Profit-making Entities,What are the main business activities of profit-making businesses?,"Trading and service
1",Trading and goods,Goods and service,,The main business activities of profit-making businesses are trading and services. ,,2
11,1.5 Profit-making Entities,What would be the main income source for a profit-making business that does trading instead of services?,Fees income,"Sales revenue
1",Gain on sale of non-current assets,,"Profit-making businesses that do trading record their largest income source from the sale of goods, also known as Sales revenue.",,2
12,1.5 Profit-making Entities,Would the accounting entry 'Inventory' exist on a trading business or a service business?,"Trading business
1",Service business,,,"Inventory on the balance sheet is the total amount of finished goods or goods held by the company. As such, a trading business would have 'Inventory' on its balance sheet, unlike a service business.",,3
13,1.6 Forms of Entities,What is the difference between a sole proprietorship and a limited company?,"A sole proprietor usually manages the business
himself/herself while a limited company is usually managed by professionals.
1","A sole proprietor company only has one person working for the company, while a limited company has a limited number of employees working for the company, as allowed by law.","A sole proprietor company has debt owed to only one person, while a limited company has laws regulating the amount of debt it can have at any point in time.",,"A sole proprietor usually manages the business
himself/herself while a limited company is usually managed by professionals.",,3
14,1.7 Accouting Theories,What is meant by the assumption of going-concern?,It assumes that the company has a enough revenue to at least pay its taxes to the government.,"It assumes that the company is financially stable enough to meet its obligations and continue its business for the foreseeable future. 
1",It assumes that the company can produce enough goods to keep its customers and clients satisfied.,,Going-concern assumes that the company is financially stable enough to meet its obligations and continue its business for the foreseeable future. ,,2
15,1.7 Accouting Theories,What is defined as an accounting entity?,Someone who does accounting for the business.,A company that performs accounting services for another business.,"A clearly defined economic unit that isolates the accounting of transactions from other accounting entities.
1",,An accounting entity is a clearly defined economic unit that isolates the accounting of transactions from other accounting entities.,,3
16,1.7 Accouting Theories,What is meant by the monetary theory in the context of accounting?,More money is better for any business.,"Only transactions that can be quantified by money is recorded.
1","Everything on earth can be quantified using money, and represented on a balance sheet.",,The monetary theory in accounting states that o\nly transactions that can be quantified by money is recorded.,,2
17,1.7 Accouting Theories,Which of these statements best describe accrual accounting?,"All transactions and transfers of cash needs to be recorded, regardless of whether an economic event has happened already.","Only transactions are recorded, rather than when cash is exchanged.
1",The total amount of revenue and expenses is shown on an accumulated basis over 5 years.,,"Accrual accounting refers to the practice of recording when transactions are made, rather than when cash is exchanged between entitites.",,2
18,1.7 Accouting Theories,Which of these transactions would be considered material?,"The purchase of a building that was financed by 50% cash and 50% debt.
1",An employee who was 10 minutes late to work on Tuesday,A multinational corporation with $750M in annual revenue finding a discrepancy of $0.56 on its balance sheet,An employee flushing the toilet twice instead of once.,The materiality principle states that an accounting standard can be ignored if the net impact of doing so has such a small impact on the financial statements that a user of the statements would not be misled. The purchase of a building would likely be material to a business.,,3